('D:\\TestWork\\dist\\Trial_Bag.exe',
 True,
 False,
 False,
 None,
 None,
 False,
 False,
 '<?xml version="1.0" encoding="UTF-8" standalone="yes"?><assembly xmlns="urn:schemas-microsoft-com:asm.v1" manifestVersion="1.0"><assemblyIdentity type="win32" name="Trial_Bag" processorArchitecture="amd64" version="1.0.0.0"/><trustInfo xmlns="urn:schemas-microsoft-com:asm.v3"><security><requestedPrivileges><requestedExecutionLevel level="asInvoker" uiAccess="false"/></requestedPrivileges></security></trustInfo><dependency><dependentAssembly><assemblyIdentity type="win32" name="Microsoft.Windows.Common-Controls" language="*" processorArchitecture="*" version="6.0.0.0" publicKeyToken="6595b64144ccf1df"/><compatibility xmlns="urn:schemas-microsoft-com:compatibility.v1"/></dependentAssembly></dependency><compatibility xmlns="urn:schemas-microsoft-com:compatibility.v1"><application><supportedOS Id="{e2011457-1546-43c5-a5fe-008deee3d3f0}"/><supportedOS Id="{35138b9a-5d96-4fbd-8e2d-a2440225f93a}"/><supportedOS Id="{4a2f28e3-53b9-4441-ba9c-d69d4a4a6e38}"/><supportedOS Id="{1f676c76-80e1-4239-95bb-83d0f6d0da78}"/><supportedOS Id="{8e0f7a12-bfb3-4fe8-b9a5-48fd50a15a9a}"/></application></compatibility></assembly>',
 True,
 'Trial_Bag.pkg',
 [('PYZ-00.pyz', 'D:\\TestWork\\build\\Trial_Bag\\PYZ-00.pyz', 'PYZ'),
  ('struct', 'd:\\programdata\\anaconda3\\lib\\struct.pyo', 'PYMODULE'),
  ('pyimod01_os_path',
   'd:\\programdata\\anaconda3\\lib\\site-packages\\PyInstaller\\loader\\pyimod01_os_path.pyc',
   'PYMODULE'),
  ('pyimod02_archive',
   'd:\\programdata\\anaconda3\\lib\\site-packages\\PyInstaller\\loader\\pyimod02_archive.pyc',
   'PYMODULE'),
  ('pyimod03_importers',
   'd:\\programdata\\anaconda3\\lib\\site-packages\\PyInstaller\\loader\\pyimod03_importers.pyc',
   'PYMODULE'),
  ('pyiboot01_bootstrap',
   'd:\\programdata\\anaconda3\\lib\\site-packages\\PyInstaller\\loader\\pyiboot01_bootstrap.py',
   'PYSOURCE'),
  ('pyi_rth_multiprocessing',
   'D:\\ProgramData\\Anaconda3\\Lib\\site-packages\\PyInstaller\\hooks\\rthooks\\pyi_rth_multiprocessing.py',
   'PYSOURCE'),
  ('pyi_rth_win32api',
   'D:\\ProgramData\\Anaconda3\\Lib\\site-packages\\PyInstaller\\hooks\\rthooks\\pyi_rth_win32api.py',
   'PYSOURCE'),
  ('Trial_Bag', 'D:\\TestWork\\Trial_Bag.py', 'PYSOURCE'),
  ('api-ms-win-crt-runtime-l1-1-0.dll',
   'd:\\programdata\\anaconda3\\api-ms-win-crt-runtime-l1-1-0.dll',
   'BINARY'),
  ('VCRUNTIME140.dll',
   'd:\\programdata\\anaconda3\\VCRUNTIME140.dll',
   'BINARY'),
  ('api-ms-win-crt-heap-l1-1-0.dll',
   'd:\\programdata\\anaconda3\\api-ms-win-crt-heap-l1-1-0.dll',
   'BINARY'),
  ('api-ms-win-crt-stdio-l1-1-0.dll',
   'd:\\programdata\\anaconda3\\api-ms-win-crt-stdio-l1-1-0.dll',
   'BINARY'),
  ('python38.dll', 'd:\\programdata\\anaconda3\\python38.dll', 'BINARY'),
  ('api-ms-win-crt-math-l1-1-0.dll',
   'd:\\programdata\\anaconda3\\api-ms-win-crt-math-l1-1-0.dll',
   'BINARY'),
  ('api-ms-win-crt-locale-l1-1-0.dll',
   'd:\\programdata\\anaconda3\\api-ms-win-crt-locale-l1-1-0.dll',
   'BINARY'),
  ('ucrtbase.dll', 'd:\\programdata\\anaconda3\\ucrtbase.dll', 'BINARY'),
  ('api-ms-win-crt-convert-l1-1-0.dll',
   'd:\\programdata\\anaconda3\\api-ms-win-crt-convert-l1-1-0.dll',
   'BINARY'),
  ('api-ms-win-crt-string-l1-1-0.dll',
   'd:\\programdata\\anaconda3\\api-ms-win-crt-string-l1-1-0.dll',
   'BINARY'),
  ('api-ms-win-crt-time-l1-1-0.dll',
   'd:\\programdata\\anaconda3\\api-ms-win-crt-time-l1-1-0.dll',
   'BINARY'),
  ('api-ms-win-crt-filesystem-l1-1-0.dll',
   'd:\\programdata\\anaconda3\\api-ms-win-crt-filesystem-l1-1-0.dll',
   'BINARY'),
  ('api-ms-win-crt-conio-l1-1-0.dll',
   'd:\\programdata\\anaconda3\\api-ms-win-crt-conio-l1-1-0.dll',
   'BINARY'),
  ('api-ms-win-crt-environment-l1-1-0.dll',
   'd:\\programdata\\anaconda3\\api-ms-win-crt-environment-l1-1-0.dll',
   'BINARY'),
  ('api-ms-win-crt-process-l1-1-0.dll',
   'd:\\programdata\\anaconda3\\api-ms-win-crt-process-l1-1-0.dll',
   'BINARY'),
  ('api-ms-win-core-libraryloader-l1-1-0.dll',
   'd:\\programdata\\anaconda3\\api-ms-win-core-libraryloader-l1-1-0.dll',
   'BINARY'),
  ('api-ms-win-core-datetime-l1-1-0.dll',
   'd:\\programdata\\anaconda3\\api-ms-win-core-datetime-l1-1-0.dll',
   'BINARY'),
  ('api-ms-win-core-string-l1-1-0.dll',
   'd:\\programdata\\anaconda3\\api-ms-win-core-string-l1-1-0.dll',
   'BINARY'),
  ('api-ms-win-core-synch-l1-1-0.dll',
   'd:\\programdata\\anaconda3\\api-ms-win-core-synch-l1-1-0.dll',
   'BINARY'),
  ('api-ms-win-core-processenvironment-l1-1-0.dll',
   'd:\\programdata\\anaconda3\\api-ms-win-core-processenvironment-l1-1-0.dll',
   'BINARY'),
  ('api-ms-win-core-file-l1-1-0.dll',
   'd:\\programdata\\anaconda3\\api-ms-win-core-file-l1-1-0.dll',
   'BINARY'),
  ('api-ms-win-core-file-l1-2-0.dll',
   'd:\\programdata\\anaconda3\\api-ms-win-core-file-l1-2-0.dll',
   'BINARY'),
  ('api-ms-win-core-rtlsupport-l1-1-0.dll',
   'd:\\programdata\\anaconda3\\api-ms-win-core-rtlsupport-l1-1-0.dll',
   'BINARY'),
  ('api-ms-win-core-localization-l1-2-0.dll',
   'd:\\programdata\\anaconda3\\api-ms-win-core-localization-l1-2-0.dll',
   'BINARY'),
  ('api-ms-win-core-errorhandling-l1-1-0.dll',
   'd:\\programdata\\anaconda3\\api-ms-win-core-errorhandling-l1-1-0.dll',
   'BINARY'),
  ('api-ms-win-core-sysinfo-l1-1-0.dll',
   'd:\\programdata\\anaconda3\\api-ms-win-core-sysinfo-l1-1-0.dll',
   'BINARY'),
  ('api-ms-win-core-file-l2-1-0.dll',
   'd:\\programdata\\anaconda3\\api-ms-win-core-file-l2-1-0.dll',
   'BINARY'),
  ('api-ms-win-core-processthreads-l1-1-1.dll',
   'd:\\programdata\\anaconda3\\api-ms-win-core-processthreads-l1-1-1.dll',
   'BINARY'),
  ('api-ms-win-core-namedpipe-l1-1-0.dll',
   'd:\\programdata\\anaconda3\\api-ms-win-core-namedpipe-l1-1-0.dll',
   'BINARY'),
  ('api-ms-win-core-debug-l1-1-0.dll',
   'd:\\programdata\\anaconda3\\api-ms-win-core-debug-l1-1-0.dll',
   'BINARY'),
  ('api-ms-win-core-interlocked-l1-1-0.dll',
   'd:\\programdata\\anaconda3\\api-ms-win-core-interlocked-l1-1-0.dll',
   'BINARY'),
  ('api-ms-win-core-profile-l1-1-0.dll',
   'd:\\programdata\\anaconda3\\api-ms-win-core-profile-l1-1-0.dll',
   'BINARY'),
  ('api-ms-win-core-processthreads-l1-1-0.dll',
   'd:\\programdata\\anaconda3\\api-ms-win-core-processthreads-l1-1-0.dll',
   'BINARY'),
  ('api-ms-win-core-util-l1-1-0.dll',
   'd:\\programdata\\anaconda3\\api-ms-win-core-util-l1-1-0.dll',
   'BINARY'),
  ('api-ms-win-core-console-l1-1-0.dll',
   'd:\\programdata\\anaconda3\\api-ms-win-core-console-l1-1-0.dll',
   'BINARY'),
  ('api-ms-win-core-timezone-l1-1-0.dll',
   'd:\\programdata\\anaconda3\\api-ms-win-core-timezone-l1-1-0.dll',
   'BINARY'),
  ('api-ms-win-core-memory-l1-1-0.dll',
   'd:\\programdata\\anaconda3\\api-ms-win-core-memory-l1-1-0.dll',
   'BINARY'),
  ('api-ms-win-core-synch-l1-2-0.dll',
   'd:\\programdata\\anaconda3\\api-ms-win-core-synch-l1-2-0.dll',
   'BINARY'),
  ('api-ms-win-core-handle-l1-1-0.dll',
   'd:\\programdata\\anaconda3\\api-ms-win-core-handle-l1-1-0.dll',
   'BINARY'),
  ('api-ms-win-core-heap-l1-1-0.dll',
   'd:\\programdata\\anaconda3\\api-ms-win-core-heap-l1-1-0.dll',
   'BINARY'),
  ('select', 'd:\\programdata\\anaconda3\\DLLs\\select.pyd', 'EXTENSION'),
  ('_socket', 'd:\\programdata\\anaconda3\\DLLs\\_socket.pyd', 'EXTENSION'),
  ('_overlapped',
   'd:\\programdata\\anaconda3\\DLLs\\_overlapped.pyd',
   'EXTENSION'),
  ('_ssl', 'd:\\programdata\\anaconda3\\DLLs\\_ssl.pyd', 'EXTENSION'),
  ('_asyncio', 'd:\\programdata\\anaconda3\\DLLs\\_asyncio.pyd', 'EXTENSION'),
  ('_queue', 'd:\\programdata\\anaconda3\\DLLs\\_queue.pyd', 'EXTENSION'),
  ('unicodedata',
   'd:\\programdata\\anaconda3\\DLLs\\unicodedata.pyd',
   'EXTENSION'),
  ('_ctypes', 'd:\\programdata\\anaconda3\\DLLs\\_ctypes.pyd', 'EXTENSION'),
  ('_multiprocessing',
   'd:\\programdata\\anaconda3\\DLLs\\_multiprocessing.pyd',
   'EXTENSION'),
  ('pyexpat', 'd:\\programdata\\anaconda3\\DLLs\\pyexpat.pyd', 'EXTENSION'),
  ('_decimal', 'd:\\programdata\\anaconda3\\DLLs\\_decimal.pyd', 'EXTENSION'),
  ('win32evtlog',
   'd:\\programdata\\anaconda3\\lib\\site-packages\\win32\\win32evtlog.pyd',
   'EXTENSION'),
  ('win32api',
   'd:\\programdata\\anaconda3\\lib\\site-packages\\win32\\win32api.pyd',
   'EXTENSION'),
  ('_hashlib', 'd:\\programdata\\anaconda3\\DLLs\\_hashlib.pyd', 'EXTENSION'),
  ('_lzma', 'd:\\programdata\\anaconda3\\DLLs\\_lzma.pyd', 'EXTENSION'),
  ('_bz2', 'd:\\programdata\\anaconda3\\DLLs\\_bz2.pyd', 'EXTENSION'),
  ('_win32sysloader',
   'd:\\programdata\\anaconda3\\lib\\site-packages\\win32\\_win32sysloader.pyd',
   'EXTENSION'),
  ('libcrypto-1_1-x64.dll',
   'D:\\ProgramData\\Anaconda3\\Library\\bin\\libcrypto-1_1-x64.dll',
   'BINARY'),
  ('libssl-1_1-x64.dll',
   'D:\\ProgramData\\Anaconda3\\Library\\bin\\libssl-1_1-x64.dll',
   'BINARY'),
  ('libffi-7.dll', 'd:\\programdata\\anaconda3\\DLLs\\libffi-7.dll', 'BINARY'),
  ('api-ms-win-crt-utility-l1-1-0.dll',
   'd:\\programdata\\anaconda3\\api-ms-win-crt-utility-l1-1-0.dll',
   'BINARY'),
  ('pywintypes38.dll',
   'd:\\programdata\\anaconda3\\lib\\site-packages\\win32\\pywintypes38.dll',
   'BINARY'),
  ('base_library.zip',
   'D:\\TestWork\\build\\Trial_Bag\\base_library.zip',
   'DATA'),
  ('Include\\pyconfig.h',
   'd:\\programdata\\anaconda3\\Include\\pyconfig.h',
   'DATA'),
  ('Trial_Bag.exe.manifest',
   'D:\\TestWork\\build\\Trial_Bag\\Trial_Bag.exe.manifest',
   'BINARY'),
  ('pyi-windows-manifest-filename Trial_Bag.exe.manifest', '', 'OPTION')],
 [],
 False,
 False,
 1606202209,
 [('run.exe',
   'd:\\programdata\\anaconda3\\lib\\site-packages\\PyInstaller\\bootloader\\Windows-64bit\\run.exe',
   'EXECUTABLE')])
