('D:\\TestWork\\build\\Trial_Bag\\PYZ-00.pyz',
 [('pywintypes',
   'd:\\programdata\\anaconda3\\lib\\site-packages\\win32\\lib\\pywintypes.py',
   'PYMODULE'),
  ('distutils.sysconfig',
   'd:\\programdata\\anaconda3\\lib\\distutils\\sysconfig.py',
   'PYMODULE'),
  ('distutils.text_file',
   'd:\\programdata\\anaconda3\\lib\\distutils\\text_file.py',
   'PYMODULE'),
  ('_osx_support',
   'd:\\programdata\\anaconda3\\lib\\_osx_support.py',
   'PYMODULE'),
  ('distutils.log',
   'd:\\programdata\\anaconda3\\lib\\distutils\\log.py',
   'PYMODULE'),
  ('tempfile', 'd:\\programdata\\anaconda3\\lib\\tempfile.py', 'PYMODULE'),
  ('random', 'd:\\programdata\\anaconda3\\lib\\random.py', 'PYMODULE'),
  ('_strptime', 'd:\\programdata\\anaconda3\\lib\\_strptime.py', 'PYMODULE'),
  ('datetime', 'd:\\programdata\\anaconda3\\lib\\datetime.py', 'PYMODULE'),
  ('calendar', 'd:\\programdata\\anaconda3\\lib\\calendar.py', 'PYMODULE'),
  ('argparse', 'd:\\programdata\\anaconda3\\lib\\argparse.py', 'PYMODULE'),
  ('textwrap', 'd:\\programdata\\anaconda3\\lib\\textwrap.py', 'PYMODULE'),
  ('copy', 'd:\\programdata\\anaconda3\\lib\\copy.py', 'PYMODULE'),
  ('gettext', 'd:\\programdata\\anaconda3\\lib\\gettext.py', 'PYMODULE'),
  ('struct', 'd:\\programdata\\anaconda3\\lib\\struct.py', 'PYMODULE'),
  ('hashlib', 'd:\\programdata\\anaconda3\\lib\\hashlib.py', 'PYMODULE'),
  ('logging',
   'd:\\programdata\\anaconda3\\lib\\logging\\__init__.py',
   'PYMODULE'),
  ('pickle', 'd:\\programdata\\anaconda3\\lib\\pickle.py', 'PYMODULE'),
  ('pprint', 'd:\\programdata\\anaconda3\\lib\\pprint.py', 'PYMODULE'),
  ('doctest', 'd:\\programdata\\anaconda3\\lib\\doctest.py', 'PYMODULE'),
  ('unittest',
   'd:\\programdata\\anaconda3\\lib\\unittest\\__init__.py',
   'PYMODULE'),
  ('ntpath', 'd:\\programdata\\anaconda3\\lib\\ntpath.py', 'PYMODULE'),
  ('genericpath',
   'd:\\programdata\\anaconda3\\lib\\genericpath.py',
   'PYMODULE'),
  ('stat', 'd:\\programdata\\anaconda3\\lib\\stat.py', 'PYMODULE'),
  ('unittest.signals',
   'd:\\programdata\\anaconda3\\lib\\unittest\\signals.py',
   'PYMODULE'),
  ('signal', 'd:\\programdata\\anaconda3\\lib\\signal.py', 'PYMODULE'),
  ('unittest.main',
   'd:\\programdata\\anaconda3\\lib\\unittest\\main.py',
   'PYMODULE'),
  ('unittest.runner',
   'd:\\programdata\\anaconda3\\lib\\unittest\\runner.py',
   'PYMODULE'),
  ('unittest.loader',
   'd:\\programdata\\anaconda3\\lib\\unittest\\loader.py',
   'PYMODULE'),
  ('fnmatch', 'd:\\programdata\\anaconda3\\lib\\fnmatch.py', 'PYMODULE'),
  ('posixpath', 'd:\\programdata\\anaconda3\\lib\\posixpath.py', 'PYMODULE'),
  ('unittest.suite',
   'd:\\programdata\\anaconda3\\lib\\unittest\\suite.py',
   'PYMODULE'),
  ('unittest.case',
   'd:\\programdata\\anaconda3\\lib\\unittest\\case.py',
   'PYMODULE'),
  ('unittest.async_case',
   'd:\\programdata\\anaconda3\\lib\\unittest\\async_case.py',
   'PYMODULE'),
  ('asyncio',
   'd:\\programdata\\anaconda3\\lib\\asyncio\\__init__.py',
   'PYMODULE'),
  ('asyncio.unix_events',
   'd:\\programdata\\anaconda3\\lib\\asyncio\\unix_events.py',
   'PYMODULE'),
  ('asyncio.log',
   'd:\\programdata\\anaconda3\\lib\\asyncio\\log.py',
   'PYMODULE'),
  ('subprocess', 'd:\\programdata\\anaconda3\\lib\\subprocess.py', 'PYMODULE'),
  ('socket', 'd:\\programdata\\anaconda3\\lib\\socket.py', 'PYMODULE'),
  ('selectors', 'd:\\programdata\\anaconda3\\lib\\selectors.py', 'PYMODULE'),
  ('asyncio.windows_events',
   'd:\\programdata\\anaconda3\\lib\\asyncio\\windows_events.py',
   'PYMODULE'),
  ('asyncio.windows_utils',
   'd:\\programdata\\anaconda3\\lib\\asyncio\\windows_utils.py',
   'PYMODULE'),
  ('asyncio.selector_events',
   'd:\\programdata\\anaconda3\\lib\\asyncio\\selector_events.py',
   'PYMODULE'),
  ('ssl', 'd:\\programdata\\anaconda3\\lib\\ssl.py', 'PYMODULE'),
  ('base64', 'd:\\programdata\\anaconda3\\lib\\base64.py', 'PYMODULE'),
  ('getopt', 'd:\\programdata\\anaconda3\\lib\\getopt.py', 'PYMODULE'),
  ('asyncio.proactor_events',
   'd:\\programdata\\anaconda3\\lib\\asyncio\\proactor_events.py',
   'PYMODULE'),
  ('asyncio.base_subprocess',
   'd:\\programdata\\anaconda3\\lib\\asyncio\\base_subprocess.py',
   'PYMODULE'),
  ('asyncio.subprocess',
   'd:\\programdata\\anaconda3\\lib\\asyncio\\subprocess.py',
   'PYMODULE'),
  ('asyncio.streams',
   'd:\\programdata\\anaconda3\\lib\\asyncio\\streams.py',
   'PYMODULE'),
  ('asyncio.queues',
   'd:\\programdata\\anaconda3\\lib\\asyncio\\queues.py',
   'PYMODULE'),
  ('asyncio.runners',
   'd:\\programdata\\anaconda3\\lib\\asyncio\\runners.py',
   'PYMODULE'),
  ('asyncio.events',
   'd:\\programdata\\anaconda3\\lib\\asyncio\\events.py',
   'PYMODULE'),
  ('contextvars',
   'd:\\programdata\\anaconda3\\lib\\contextvars.py',
   'PYMODULE'),
  ('asyncio.trsock',
   'd:\\programdata\\anaconda3\\lib\\asyncio\\trsock.py',
   'PYMODULE'),
  ('asyncio.staggered',
   'd:\\programdata\\anaconda3\\lib\\asyncio\\staggered.py',
   'PYMODULE'),
  ('typing', 'd:\\programdata\\anaconda3\\lib\\typing.py', 'PYMODULE'),
  ('asyncio.tasks',
   'd:\\programdata\\anaconda3\\lib\\asyncio\\tasks.py',
   'PYMODULE'),
  ('concurrent.futures',
   'd:\\programdata\\anaconda3\\lib\\concurrent\\futures\\__init__.py',
   'PYMODULE'),
  ('concurrent.futures.thread',
   'd:\\programdata\\anaconda3\\lib\\concurrent\\futures\\thread.py',
   'PYMODULE'),
  ('queue', 'd:\\programdata\\anaconda3\\lib\\queue.py', 'PYMODULE'),
  ('concurrent.futures.process',
   'd:\\programdata\\anaconda3\\lib\\concurrent\\futures\\process.py',
   'PYMODULE'),
  ('multiprocessing.queues',
   'd:\\programdata\\anaconda3\\lib\\multiprocessing\\queues.py',
   'PYMODULE'),
  ('multiprocessing.synchronize',
   'd:\\programdata\\anaconda3\\lib\\multiprocessing\\synchronize.py',
   'PYMODULE'),
  ('multiprocessing.heap',
   'd:\\programdata\\anaconda3\\lib\\multiprocessing\\heap.py',
   'PYMODULE'),
  ('multiprocessing.resource_tracker',
   'd:\\programdata\\anaconda3\\lib\\multiprocessing\\resource_tracker.py',
   'PYMODULE'),
  ('multiprocessing.spawn',
   'd:\\programdata\\anaconda3\\lib\\multiprocessing\\spawn.py',
   'PYMODULE'),
  ('runpy', 'd:\\programdata\\anaconda3\\lib\\runpy.py', 'PYMODULE'),
  ('pkgutil', 'd:\\programdata\\anaconda3\\lib\\pkgutil.py', 'PYMODULE'),
  ('zipimport', 'd:\\programdata\\anaconda3\\lib\\zipimport.py', 'PYMODULE'),
  ('pathlib', 'd:\\programdata\\anaconda3\\lib\\pathlib.py', 'PYMODULE'),
  ('urllib.parse',
   'd:\\programdata\\anaconda3\\lib\\urllib\\parse.py',
   'PYMODULE'),
  ('urllib',
   'd:\\programdata\\anaconda3\\lib\\urllib\\__init__.py',
   'PYMODULE'),
  ('importlib.abc',
   'd:\\programdata\\anaconda3\\lib\\importlib\\abc.py',
   'PYMODULE'),
  ('importlib._bootstrap_external',
   'd:\\programdata\\anaconda3\\lib\\importlib\\_bootstrap_external.py',
   'PYMODULE'),
  ('importlib.metadata',
   'd:\\programdata\\anaconda3\\lib\\importlib\\metadata.py',
   'PYMODULE'),
  ('configparser',
   'd:\\programdata\\anaconda3\\lib\\configparser.py',
   'PYMODULE'),
  ('email', 'd:\\programdata\\anaconda3\\lib\\email\\__init__.py', 'PYMODULE'),
  ('email.parser',
   'd:\\programdata\\anaconda3\\lib\\email\\parser.py',
   'PYMODULE'),
  ('email._policybase',
   'd:\\programdata\\anaconda3\\lib\\email\\_policybase.py',
   'PYMODULE'),
  ('email.utils',
   'd:\\programdata\\anaconda3\\lib\\email\\utils.py',
   'PYMODULE'),
  ('email._parseaddr',
   'd:\\programdata\\anaconda3\\lib\\email\\_parseaddr.py',
   'PYMODULE'),
  ('email.feedparser',
   'd:\\programdata\\anaconda3\\lib\\email\\feedparser.py',
   'PYMODULE'),
  ('email.message',
   'd:\\programdata\\anaconda3\\lib\\email\\message.py',
   'PYMODULE'),
  ('email.policy',
   'd:\\programdata\\anaconda3\\lib\\email\\policy.py',
   'PYMODULE'),
  ('email.contentmanager',
   'd:\\programdata\\anaconda3\\lib\\email\\contentmanager.py',
   'PYMODULE'),
  ('email.quoprimime',
   'd:\\programdata\\anaconda3\\lib\\email\\quoprimime.py',
   'PYMODULE'),
  ('email.headerregistry',
   'd:\\programdata\\anaconda3\\lib\\email\\headerregistry.py',
   'PYMODULE'),
  ('email.iterators',
   'd:\\programdata\\anaconda3\\lib\\email\\iterators.py',
   'PYMODULE'),
  ('email.generator',
   'd:\\programdata\\anaconda3\\lib\\email\\generator.py',
   'PYMODULE'),
  ('email._encoded_words',
   'd:\\programdata\\anaconda3\\lib\\email\\_encoded_words.py',
   'PYMODULE'),
  ('quopri', 'd:\\programdata\\anaconda3\\lib\\quopri.py', 'PYMODULE'),
  ('uu', 'd:\\programdata\\anaconda3\\lib\\uu.py', 'PYMODULE'),
  ('optparse', 'd:\\programdata\\anaconda3\\lib\\optparse.py', 'PYMODULE'),
  ('email._header_value_parser',
   'd:\\programdata\\anaconda3\\lib\\email\\_header_value_parser.py',
   'PYMODULE'),
  ('email.header',
   'd:\\programdata\\anaconda3\\lib\\email\\header.py',
   'PYMODULE'),
  ('email.base64mime',
   'd:\\programdata\\anaconda3\\lib\\email\\base64mime.py',
   'PYMODULE'),
  ('email.charset',
   'd:\\programdata\\anaconda3\\lib\\email\\charset.py',
   'PYMODULE'),
  ('email.encoders',
   'd:\\programdata\\anaconda3\\lib\\email\\encoders.py',
   'PYMODULE'),
  ('email.errors',
   'd:\\programdata\\anaconda3\\lib\\email\\errors.py',
   'PYMODULE'),
  ('csv', 'd:\\programdata\\anaconda3\\lib\\csv.py', 'PYMODULE'),
  ('tokenize', 'd:\\programdata\\anaconda3\\lib\\tokenize.py', 'PYMODULE'),
  ('token', 'd:\\programdata\\anaconda3\\lib\\token.py', 'PYMODULE'),
  ('importlib._bootstrap',
   'd:\\programdata\\anaconda3\\lib\\importlib\\_bootstrap.py',
   'PYMODULE'),
  ('importlib',
   'd:\\programdata\\anaconda3\\lib\\importlib\\__init__.py',
   'PYMODULE'),
  ('importlib.util',
   'd:\\programdata\\anaconda3\\lib\\importlib\\util.py',
   'PYMODULE'),
  ('importlib.machinery',
   'd:\\programdata\\anaconda3\\lib\\importlib\\machinery.py',
   'PYMODULE'),
  ('multiprocessing.process',
   'd:\\programdata\\anaconda3\\lib\\multiprocessing\\process.py',
   'PYMODULE'),
  ('multiprocessing.util',
   'd:\\programdata\\anaconda3\\lib\\multiprocessing\\util.py',
   'PYMODULE'),
  ('multiprocessing.forkserver',
   'd:\\programdata\\anaconda3\\lib\\multiprocessing\\forkserver.py',
   'PYMODULE'),
  ('multiprocessing.context',
   'd:\\programdata\\anaconda3\\lib\\multiprocessing\\context.py',
   'PYMODULE'),
  ('multiprocessing.popen_spawn_win32',
   'd:\\programdata\\anaconda3\\lib\\multiprocessing\\popen_spawn_win32.py',
   'PYMODULE'),
  ('multiprocessing.popen_forkserver',
   'd:\\programdata\\anaconda3\\lib\\multiprocessing\\popen_forkserver.py',
   'PYMODULE'),
  ('multiprocessing.popen_spawn_posix',
   'd:\\programdata\\anaconda3\\lib\\multiprocessing\\popen_spawn_posix.py',
   'PYMODULE'),
  ('multiprocessing.popen_fork',
   'd:\\programdata\\anaconda3\\lib\\multiprocessing\\popen_fork.py',
   'PYMODULE'),
  ('multiprocessing.sharedctypes',
   'd:\\programdata\\anaconda3\\lib\\multiprocessing\\sharedctypes.py',
   'PYMODULE'),
  ('ctypes',
   'd:\\programdata\\anaconda3\\lib\\ctypes\\__init__.py',
   'PYMODULE'),
  ('ctypes._endian',
   'd:\\programdata\\anaconda3\\lib\\ctypes\\_endian.py',
   'PYMODULE'),
  ('multiprocessing.pool',
   'd:\\programdata\\anaconda3\\lib\\multiprocessing\\pool.py',
   'PYMODULE'),
  ('multiprocessing.dummy',
   'd:\\programdata\\anaconda3\\lib\\multiprocessing\\dummy\\__init__.py',
   'PYMODULE'),
  ('multiprocessing.dummy.connection',
   'd:\\programdata\\anaconda3\\lib\\multiprocessing\\dummy\\connection.py',
   'PYMODULE'),
  ('multiprocessing.managers',
   'd:\\programdata\\anaconda3\\lib\\multiprocessing\\managers.py',
   'PYMODULE'),
  ('multiprocessing.shared_memory',
   'd:\\programdata\\anaconda3\\lib\\multiprocessing\\shared_memory.py',
   'PYMODULE'),
  ('secrets', 'd:\\programdata\\anaconda3\\lib\\secrets.py', 'PYMODULE'),
  ('hmac', 'd:\\programdata\\anaconda3\\lib\\hmac.py', 'PYMODULE'),
  ('multiprocessing.reduction',
   'd:\\programdata\\anaconda3\\lib\\multiprocessing\\reduction.py',
   'PYMODULE'),
  ('multiprocessing.resource_sharer',
   'd:\\programdata\\anaconda3\\lib\\multiprocessing\\resource_sharer.py',
   'PYMODULE'),
  ('multiprocessing.connection',
   'd:\\programdata\\anaconda3\\lib\\multiprocessing\\connection.py',
   'PYMODULE'),
  ('xmlrpc.client',
   'd:\\programdata\\anaconda3\\lib\\xmlrpc\\client.py',
   'PYMODULE'),
  ('xmlrpc',
   'd:\\programdata\\anaconda3\\lib\\xmlrpc\\__init__.py',
   'PYMODULE'),
  ('gzip', 'd:\\programdata\\anaconda3\\lib\\gzip.py', 'PYMODULE'),
  ('_compression',
   'd:\\programdata\\anaconda3\\lib\\_compression.py',
   'PYMODULE'),
  ('xml.parsers.expat',
   'd:\\programdata\\anaconda3\\lib\\xml\\parsers\\expat.py',
   'PYMODULE'),
  ('xml.parsers',
   'd:\\programdata\\anaconda3\\lib\\xml\\parsers\\__init__.py',
   'PYMODULE'),
  ('xml', 'd:\\programdata\\anaconda3\\lib\\xml\\__init__.py', 'PYMODULE'),
  ('xml.sax.expatreader',
   'd:\\programdata\\anaconda3\\lib\\xml\\sax\\expatreader.py',
   'PYMODULE'),
  ('xml.sax.saxutils',
   'd:\\programdata\\anaconda3\\lib\\xml\\sax\\saxutils.py',
   'PYMODULE'),
  ('urllib.request',
   'd:\\programdata\\anaconda3\\lib\\urllib\\request.py',
   'PYMODULE'),
  ('getpass', 'd:\\programdata\\anaconda3\\lib\\getpass.py', 'PYMODULE'),
  ('nturl2path', 'd:\\programdata\\anaconda3\\lib\\nturl2path.py', 'PYMODULE'),
  ('ftplib', 'd:\\programdata\\anaconda3\\lib\\ftplib.py', 'PYMODULE'),
  ('netrc', 'd:\\programdata\\anaconda3\\lib\\netrc.py', 'PYMODULE'),
  ('shlex', 'd:\\programdata\\anaconda3\\lib\\shlex.py', 'PYMODULE'),
  ('mimetypes', 'd:\\programdata\\anaconda3\\lib\\mimetypes.py', 'PYMODULE'),
  ('http.cookiejar',
   'd:\\programdata\\anaconda3\\lib\\http\\cookiejar.py',
   'PYMODULE'),
  ('http', 'd:\\programdata\\anaconda3\\lib\\http\\__init__.py', 'PYMODULE'),
  ('urllib.response',
   'd:\\programdata\\anaconda3\\lib\\urllib\\response.py',
   'PYMODULE'),
  ('urllib.error',
   'd:\\programdata\\anaconda3\\lib\\urllib\\error.py',
   'PYMODULE'),
  ('xml.sax',
   'd:\\programdata\\anaconda3\\lib\\xml\\sax\\__init__.py',
   'PYMODULE'),
  ('xml.sax.handler',
   'd:\\programdata\\anaconda3\\lib\\xml\\sax\\handler.py',
   'PYMODULE'),
  ('xml.sax._exceptions',
   'd:\\programdata\\anaconda3\\lib\\xml\\sax\\_exceptions.py',
   'PYMODULE'),
  ('xml.sax.xmlreader',
   'd:\\programdata\\anaconda3\\lib\\xml\\sax\\xmlreader.py',
   'PYMODULE'),
  ('http.client',
   'd:\\programdata\\anaconda3\\lib\\http\\client.py',
   'PYMODULE'),
  ('decimal', 'd:\\programdata\\anaconda3\\lib\\decimal.py', 'PYMODULE'),
  ('_pydecimal', 'd:\\programdata\\anaconda3\\lib\\_pydecimal.py', 'PYMODULE'),
  ('numbers', 'd:\\programdata\\anaconda3\\lib\\numbers.py', 'PYMODULE'),
  ('multiprocessing',
   'd:\\programdata\\anaconda3\\lib\\multiprocessing\\__init__.py',
   'PYMODULE'),
  ('concurrent.futures._base',
   'd:\\programdata\\anaconda3\\lib\\concurrent\\futures\\_base.py',
   'PYMODULE'),
  ('concurrent',
   'd:\\programdata\\anaconda3\\lib\\concurrent\\__init__.py',
   'PYMODULE'),
  ('asyncio.base_tasks',
   'd:\\programdata\\anaconda3\\lib\\asyncio\\base_tasks.py',
   'PYMODULE'),
  ('asyncio.locks',
   'd:\\programdata\\anaconda3\\lib\\asyncio\\locks.py',
   'PYMODULE'),
  ('asyncio.sslproto',
   'd:\\programdata\\anaconda3\\lib\\asyncio\\sslproto.py',
   'PYMODULE'),
  ('asyncio.transports',
   'd:\\programdata\\anaconda3\\lib\\asyncio\\transports.py',
   'PYMODULE'),
  ('asyncio.base_events',
   'd:\\programdata\\anaconda3\\lib\\asyncio\\base_events.py',
   'PYMODULE'),
  ('asyncio.protocols',
   'd:\\programdata\\anaconda3\\lib\\asyncio\\protocols.py',
   'PYMODULE'),
  ('asyncio.futures',
   'd:\\programdata\\anaconda3\\lib\\asyncio\\futures.py',
   'PYMODULE'),
  ('asyncio.coroutines',
   'd:\\programdata\\anaconda3\\lib\\asyncio\\coroutines.py',
   'PYMODULE'),
  ('asyncio.base_futures',
   'd:\\programdata\\anaconda3\\lib\\asyncio\\base_futures.py',
   'PYMODULE'),
  ('asyncio.exceptions',
   'd:\\programdata\\anaconda3\\lib\\asyncio\\exceptions.py',
   'PYMODULE'),
  ('asyncio.format_helpers',
   'd:\\programdata\\anaconda3\\lib\\asyncio\\format_helpers.py',
   'PYMODULE'),
  ('asyncio.constants',
   'd:\\programdata\\anaconda3\\lib\\asyncio\\constants.py',
   'PYMODULE'),
  ('unittest.result',
   'd:\\programdata\\anaconda3\\lib\\unittest\\result.py',
   'PYMODULE'),
  ('unittest.util',
   'd:\\programdata\\anaconda3\\lib\\unittest\\util.py',
   'PYMODULE'),
  ('pdb', 'd:\\programdata\\anaconda3\\lib\\pdb.py', 'PYMODULE'),
  ('pydoc', 'd:\\programdata\\anaconda3\\lib\\pydoc.py', 'PYMODULE'),
  ('webbrowser', 'd:\\programdata\\anaconda3\\lib\\webbrowser.py', 'PYMODULE'),
  ('http.server',
   'd:\\programdata\\anaconda3\\lib\\http\\server.py',
   'PYMODULE'),
  ('socketserver',
   'd:\\programdata\\anaconda3\\lib\\socketserver.py',
   'PYMODULE'),
  ('html', 'd:\\programdata\\anaconda3\\lib\\html\\__init__.py', 'PYMODULE'),
  ('html.entities',
   'd:\\programdata\\anaconda3\\lib\\html\\entities.py',
   'PYMODULE'),
  ('pydoc_data.topics',
   'd:\\programdata\\anaconda3\\lib\\pydoc_data\\topics.py',
   'PYMODULE'),
  ('pydoc_data',
   'd:\\programdata\\anaconda3\\lib\\pydoc_data\\__init__.py',
   'PYMODULE'),
  ('tty', 'd:\\programdata\\anaconda3\\lib\\tty.py', 'PYMODULE'),
  ('sysconfig', 'd:\\programdata\\anaconda3\\lib\\sysconfig.py', 'PYMODULE'),
  ('platform', 'd:\\programdata\\anaconda3\\lib\\platform.py', 'PYMODULE'),
  ('plistlib', 'd:\\programdata\\anaconda3\\lib\\plistlib.py', 'PYMODULE'),
  ('readline',
   'd:\\programdata\\anaconda3\\lib\\site-packages\\readline.py',
   'PYMODULE'),
  ('pyreadline.console',
   'd:\\programdata\\anaconda3\\lib\\site-packages\\pyreadline\\console\\__init__.py',
   'PYMODULE'),
  ('pyreadline.console.console',
   'd:\\programdata\\anaconda3\\lib\\site-packages\\pyreadline\\console\\console.py',
   'PYMODULE'),
  ('pyreadline.console.event',
   'd:\\programdata\\anaconda3\\lib\\site-packages\\pyreadline\\console\\event.py',
   'PYMODULE'),
  ('ctypes.wintypes',
   'd:\\programdata\\anaconda3\\lib\\ctypes\\wintypes.py',
   'PYMODULE'),
  ('ctypes.util',
   'd:\\programdata\\anaconda3\\lib\\ctypes\\util.py',
   'PYMODULE'),
  ('ctypes._aix',
   'd:\\programdata\\anaconda3\\lib\\ctypes\\_aix.py',
   'PYMODULE'),
  ('ctypes.macholib.dyld',
   'd:\\programdata\\anaconda3\\lib\\ctypes\\macholib\\dyld.py',
   'PYMODULE'),
  ('ctypes.macholib',
   'd:\\programdata\\anaconda3\\lib\\ctypes\\macholib\\__init__.py',
   'PYMODULE'),
  ('ctypes.macholib.dylib',
   'd:\\programdata\\anaconda3\\lib\\ctypes\\macholib\\dylib.py',
   'PYMODULE'),
  ('ctypes.macholib.framework',
   'd:\\programdata\\anaconda3\\lib\\ctypes\\macholib\\framework.py',
   'PYMODULE'),
  ('pyreadline.console.ansi',
   'd:\\programdata\\anaconda3\\lib\\site-packages\\pyreadline\\console\\ansi.py',
   'PYMODULE'),
  ('pyreadline.keysyms',
   'd:\\programdata\\anaconda3\\lib\\site-packages\\pyreadline\\keysyms\\__init__.py',
   'PYMODULE'),
  ('pyreadline.keysyms.keysyms',
   'd:\\programdata\\anaconda3\\lib\\site-packages\\pyreadline\\keysyms\\keysyms.py',
   'PYMODULE'),
  ('pyreadline.keysyms.common',
   'd:\\programdata\\anaconda3\\lib\\site-packages\\pyreadline\\keysyms\\common.py',
   'PYMODULE'),
  ('pyreadline.keysyms.ironpython_keysyms',
   'd:\\programdata\\anaconda3\\lib\\site-packages\\pyreadline\\keysyms\\ironpython_keysyms.py',
   'PYMODULE'),
  ('pyreadline.keysyms.winconstants',
   'd:\\programdata\\anaconda3\\lib\\site-packages\\pyreadline\\keysyms\\winconstants.py',
   'PYMODULE'),
  ('pyreadline.logger',
   'd:\\programdata\\anaconda3\\lib\\site-packages\\pyreadline\\logger.py',
   'PYMODULE'),
  ('logging.handlers',
   'd:\\programdata\\anaconda3\\lib\\logging\\handlers.py',
   'PYMODULE'),
  ('win32evtlogutil',
   'd:\\programdata\\anaconda3\\lib\\site-packages\\win32\\lib\\win32evtlogutil.py',
   'PYMODULE'),
  ('winerror',
   'd:\\programdata\\anaconda3\\lib\\site-packages\\win32\\lib\\winerror.py',
   'PYMODULE'),
  ('win32con',
   'd:\\programdata\\anaconda3\\lib\\site-packages\\win32\\lib\\win32con.py',
   'PYMODULE'),
  ('smtplib', 'd:\\programdata\\anaconda3\\lib\\smtplib.py', 'PYMODULE'),
  ('pyreadline.unicode_helper',
   'd:\\programdata\\anaconda3\\lib\\site-packages\\pyreadline\\unicode_helper.py',
   'PYMODULE'),
  ('pyreadline.py3k_compat',
   'd:\\programdata\\anaconda3\\lib\\site-packages\\pyreadline\\py3k_compat.py',
   'PYMODULE'),
  ('pyreadline.console.ironpython_console',
   'd:\\programdata\\anaconda3\\lib\\site-packages\\pyreadline\\console\\ironpython_console.py',
   'PYMODULE'),
  ('pyreadline',
   'd:\\programdata\\anaconda3\\lib\\site-packages\\pyreadline\\__init__.py',
   'PYMODULE'),
  ('pyreadline.release',
   'd:\\programdata\\anaconda3\\lib\\site-packages\\pyreadline\\release.py',
   'PYMODULE'),
  ('pyreadline.modes',
   'd:\\programdata\\anaconda3\\lib\\site-packages\\pyreadline\\modes\\__init__.py',
   'PYMODULE'),
  ('pyreadline.modes.vi',
   'd:\\programdata\\anaconda3\\lib\\site-packages\\pyreadline\\modes\\vi.py',
   'PYMODULE'),
  ('pyreadline.lineeditor.history',
   'd:\\programdata\\anaconda3\\lib\\site-packages\\pyreadline\\lineeditor\\history.py',
   'PYMODULE'),
  ('pyreadline.lineeditor.lineobj',
   'd:\\programdata\\anaconda3\\lib\\site-packages\\pyreadline\\lineeditor\\lineobj.py',
   'PYMODULE'),
  ('pyreadline.lineeditor.wordmatcher',
   'd:\\programdata\\anaconda3\\lib\\site-packages\\pyreadline\\lineeditor\\wordmatcher.py',
   'PYMODULE'),
  ('pyreadline.modes.notemacs',
   'd:\\programdata\\anaconda3\\lib\\site-packages\\pyreadline\\modes\\notemacs.py',
   'PYMODULE'),
  ('pyreadline.modes.emacs',
   'd:\\programdata\\anaconda3\\lib\\site-packages\\pyreadline\\modes\\emacs.py',
   'PYMODULE'),
  ('pyreadline.modes.basemode',
   'd:\\programdata\\anaconda3\\lib\\site-packages\\pyreadline\\modes\\basemode.py',
   'PYMODULE'),
  ('pyreadline.error',
   'd:\\programdata\\anaconda3\\lib\\site-packages\\pyreadline\\error.py',
   'PYMODULE'),
  ('pyreadline.lineeditor',
   'd:\\programdata\\anaconda3\\lib\\site-packages\\pyreadline\\lineeditor\\__init__.py',
   'PYMODULE'),
  ('pyreadline.clipboard',
   'd:\\programdata\\anaconda3\\lib\\site-packages\\pyreadline\\clipboard\\__init__.py',
   'PYMODULE'),
  ('pyreadline.clipboard.win32_clipboard',
   'd:\\programdata\\anaconda3\\lib\\site-packages\\pyreadline\\clipboard\\win32_clipboard.py',
   'PYMODULE'),
  ('pyreadline.clipboard.no_clipboard',
   'd:\\programdata\\anaconda3\\lib\\site-packages\\pyreadline\\clipboard\\no_clipboard.py',
   'PYMODULE'),
  ('pyreadline.clipboard.ironpython_clipboard',
   'd:\\programdata\\anaconda3\\lib\\site-packages\\pyreadline\\clipboard\\ironpython_clipboard.py',
   'PYMODULE'),
  ('pyreadline.rlmain',
   'd:\\programdata\\anaconda3\\lib\\site-packages\\pyreadline\\rlmain.py',
   'PYMODULE'),
  ('glob', 'd:\\programdata\\anaconda3\\lib\\glob.py', 'PYMODULE'),
  ('code', 'd:\\programdata\\anaconda3\\lib\\code.py', 'PYMODULE'),
  ('codeop', 'd:\\programdata\\anaconda3\\lib\\codeop.py', 'PYMODULE'),
  ('dis', 'd:\\programdata\\anaconda3\\lib\\dis.py', 'PYMODULE'),
  ('opcode', 'd:\\programdata\\anaconda3\\lib\\opcode.py', 'PYMODULE'),
  ('bdb', 'd:\\programdata\\anaconda3\\lib\\bdb.py', 'PYMODULE'),
  ('cmd', 'd:\\programdata\\anaconda3\\lib\\cmd.py', 'PYMODULE'),
  ('inspect', 'd:\\programdata\\anaconda3\\lib\\inspect.py', 'PYMODULE'),
  ('ast', 'd:\\programdata\\anaconda3\\lib\\ast.py', 'PYMODULE'),
  ('difflib', 'd:\\programdata\\anaconda3\\lib\\difflib.py', 'PYMODULE'),
  ('__future__', 'd:\\programdata\\anaconda3\\lib\\__future__.py', 'PYMODULE'),
  ('_compat_pickle',
   'd:\\programdata\\anaconda3\\lib\\_compat_pickle.py',
   'PYMODULE'),
  ('threading', 'd:\\programdata\\anaconda3\\lib\\threading.py', 'PYMODULE'),
  ('_threading_local',
   'd:\\programdata\\anaconda3\\lib\\_threading_local.py',
   'PYMODULE'),
  ('string', 'd:\\programdata\\anaconda3\\lib\\string.py', 'PYMODULE'),
  ('bisect', 'd:\\programdata\\anaconda3\\lib\\bisect.py', 'PYMODULE'),
  ('shutil', 'd:\\programdata\\anaconda3\\lib\\shutil.py', 'PYMODULE'),
  ('tarfile', 'd:\\programdata\\anaconda3\\lib\\tarfile.py', 'PYMODULE'),
  ('lzma', 'd:\\programdata\\anaconda3\\lib\\lzma.py', 'PYMODULE'),
  ('bz2', 'd:\\programdata\\anaconda3\\lib\\bz2.py', 'PYMODULE'),
  ('contextlib', 'd:\\programdata\\anaconda3\\lib\\contextlib.py', 'PYMODULE'),
  ('distutils.util',
   'd:\\programdata\\anaconda3\\lib\\distutils\\util.py',
   'PYMODULE'),
  ('distutils.filelist',
   'd:\\programdata\\anaconda3\\lib\\distutils\\filelist.py',
   'PYMODULE'),
  ('distutils.debug',
   'd:\\programdata\\anaconda3\\lib\\distutils\\debug.py',
   'PYMODULE'),
  ('distutils.file_util',
   'd:\\programdata\\anaconda3\\lib\\distutils\\file_util.py',
   'PYMODULE'),
  ('distutils.dir_util',
   'd:\\programdata\\anaconda3\\lib\\distutils\\dir_util.py',
   'PYMODULE'),
  ('py_compile', 'd:\\programdata\\anaconda3\\lib\\py_compile.py', 'PYMODULE'),
  ('distutils.spawn',
   'd:\\programdata\\anaconda3\\lib\\distutils\\spawn.py',
   'PYMODULE'),
  ('distutils.dep_util',
   'd:\\programdata\\anaconda3\\lib\\distutils\\dep_util.py',
   'PYMODULE'),
  ('distutils',
   'd:\\programdata\\anaconda3\\lib\\distutils\\__init__.py',
   'PYMODULE'),
  ('distutils.ccompiler',
   'd:\\programdata\\anaconda3\\lib\\distutils\\ccompiler.py',
   'PYMODULE'),
  ('distutils.fancy_getopt',
   'd:\\programdata\\anaconda3\\lib\\distutils\\fancy_getopt.py',
   'PYMODULE'),
  ('distutils.errors',
   'd:\\programdata\\anaconda3\\lib\\distutils\\errors.py',
   'PYMODULE'),
  ('imp', 'd:\\programdata\\anaconda3\\lib\\imp.py', 'PYMODULE'),
  ('stringprep', 'd:\\programdata\\anaconda3\\lib\\stringprep.py', 'PYMODULE'),
  ('tracemalloc',
   'd:\\programdata\\anaconda3\\lib\\tracemalloc.py',
   'PYMODULE'),
  ('_py_abc', 'd:\\programdata\\anaconda3\\lib\\_py_abc.py', 'PYMODULE'),
  ('zipfile', 'd:\\programdata\\anaconda3\\lib\\zipfile.py', 'PYMODULE'),
  ('os', 'd:\\programdata\\anaconda3\\lib\\os.py', 'PYMODULE')])
